<svg width="24" height="24" viewBox="0 0 24 24" fill="none" xmlns="http://www.w3.org/2000/svg">
<path opacity="0.3" fill-rule="evenodd" clip-rule="evenodd" d="M4.25204 14C5.14012 17.4505 8.27232 20 12 20C16.4183 20 20 16.4183 20 12C20 7.92038 16.9463 4.55399 13 4.06189V14H4.25204Z" fill="#B0B7C3"/>
<path fill-rule="evenodd" clip-rule="evenodd" d="M11 11.6V3C6.91622 3 3.54713 6.05992 3.0604 10.0121L11 11.6Z" fill="#B0B7C3"/>
</svg>
