<svg width="24" height="24" viewBox="0 0 24 24" fill="none" xmlns="http://www.w3.org/2000/svg">
<path d="M11.0854 16.0348L9.6712 14.6206L12.1461 12.1457C12.7319 11.5599 12.7319 10.6102 12.1461 10.0244C11.5603 9.4386 10.6105 9.43859 10.0247 10.0244L6.48921 13.5599C5.12238 14.9268 5.12238 17.1428 6.48921 18.5097C7.85605 19.8765 10.0721 19.8765 11.439 18.5097L18.51 11.4386C19.8769 10.0718 19.8769 7.85568 18.51 6.48885L18.1565 6.13529C16.9849 4.96372 15.0854 4.96372 13.9138 6.13529L12.4996 4.72108C14.4522 2.76846 17.6181 2.76846 19.5707 4.72108L19.9242 5.07463C22.0721 7.22252 22.0721 10.7049 19.9242 12.8528L12.8532 19.9239C10.7053 22.0718 7.22288 22.0718 5.075 19.9239C2.92712 17.776 2.92712 14.2936 5.075 12.1457L8.61054 8.61017C9.97737 7.24333 12.1934 7.24333 13.5603 8.61017C14.9271 9.977 14.9271 12.1931 13.5603 13.5599L11.0854 16.0348Z" fill="#377DFF"/>
</svg>
