<svg width="20" height="20" viewBox="0 0 20 20" fill="none" xmlns="http://www.w3.org/2000/svg">
<path opacity="0.3" fill-rule="evenodd" clip-rule="evenodd" d="M6.66634 2.5H5.33301C4.22844 2.5 3.33301 3.39543 3.33301 4.5V17.1667C3.33301 18.2712 4.22844 19.1667 5.33301 19.1667H14.6663C15.7709 19.1667 16.6663 18.2712 16.6663 17.1667V4.5C16.6663 3.39543 15.7709 2.5 14.6663 2.5H13.333V2.91667C13.333 3.60702 12.7734 4.16667 12.083 4.16667H7.91634C7.22599 4.16667 6.66634 3.60702 6.66634 2.91667V2.5Z" fill="#B0B7C3"/>
<path fill-rule="evenodd" clip-rule="evenodd" d="M10.8333 1.66683C10.8333 1.20659 10.4602 0.833496 10 0.833496C9.53976 0.833496 9.16667 1.20659 9.16667 1.66683L8 1.66683C7.72386 1.66683 7.5 1.89069 7.5 2.16683V2.8335C7.5 3.10964 7.72386 3.3335 8 3.3335H12C12.2761 3.3335 12.5 3.10964 12.5 2.8335V2.16683C12.5 1.89069 12.2761 1.66683 12 1.66683L10.8333 1.66683Z" fill="#B0B7C3"/>
<rect opacity="0.3" x="8.33301" y="7.5" width="5.83333" height="1.66667" rx="0.833333" fill="#B0B7C3"/>
<rect opacity="0.3" x="5.83301" y="7.5" width="1.66667" height="1.66667" rx="0.833333" fill="#B0B7C3"/>
<rect opacity="0.3" x="5.83301" y="10.8335" width="1.66667" height="1.66667" rx="0.833333" fill="#B0B7C3"/>
<rect opacity="0.3" x="8.33301" y="10.8335" width="5.83333" height="1.66667" rx="0.833333" fill="#B0B7C3"/>
<rect opacity="0.3" x="5.83301" y="14.1665" width="1.66667" height="1.66667" rx="0.833333" fill="#B0B7C3"/>
<rect opacity="0.3" x="8.33301" y="14.1665" width="5.83333" height="1.66667" rx="0.833334" fill="#B0B7C3"/>
</svg>
