<svg width="20" height="20" viewBox="0 0 20 20" fill="none" xmlns="http://www.w3.org/2000/svg">
<path opacity="0.3" fill-rule="evenodd" clip-rule="evenodd" d="M4.83337 3.33333C4.00495 3.33333 3.33337 4.00491 3.33337 4.83333V7.66667C3.33337 8.49509 4.00495 9.16667 4.83337 9.16667H15.1667C15.9951 9.16667 16.6667 8.49509 16.6667 7.66666V4.83333C16.6667 4.00491 15.9951 3.33333 15.1667 3.33333H4.83337ZM9.16671 5C8.70647 5 8.33337 5.37309 8.33337 5.83333C8.33337 6.29357 8.70647 6.66667 9.16671 6.66667H10.8334C11.2936 6.66667 11.6667 6.29357 11.6667 5.83333C11.6667 5.37309 11.2936 5 10.8334 5H9.16671Z" fill="#B0B7C3"/>
<path fill-rule="evenodd" clip-rule="evenodd" d="M4.83337 10.8333C4.00495 10.8333 3.33337 11.5049 3.33337 12.3333V15.1667C3.33337 15.9951 4.00495 16.6667 4.83337 16.6667H15.1667C15.9951 16.6667 16.6667 15.9951 16.6667 15.1667V12.3333C16.6667 11.5049 15.9951 10.8333 15.1667 10.8333H4.83337ZM9.16671 12.5C8.70647 12.5 8.33337 12.8731 8.33337 13.3333C8.33337 13.7936 8.70647 14.1667 9.16671 14.1667H10.8334C11.2936 14.1667 11.6667 13.7936 11.6667 13.3333C11.6667 12.8731 11.2936 12.5 10.8334 12.5H9.16671Z" fill="#B0B7C3"/>
</svg>
