<svg width="20" height="20" viewBox="0 0 20 20" fill="none" xmlns="http://www.w3.org/2000/svg">
<path opacity="0.3" fill-rule="evenodd" clip-rule="evenodd" d="M11.3551 1.6665H4.88063C3.35005 1.6665 3.33301 1.77161 3.33301 3.26373V16.7359C3.33301 18.2281 3.35005 18.3332 4.88063 18.3332H15.1187C16.6493 18.3332 16.6663 18.2281 16.6663 16.7359V6.39015C16.6663 5.94883 16.472 5.5299 16.135 5.24489L12.3238 2.02124C12.053 1.79219 11.7098 1.6665 11.3551 1.6665ZM8.50315 12.8853C8.66287 13.045 8.86252 13.1248 9.06217 13.1248C9.26183 13.1248 9.46148 13.045 9.6212 12.8853L12.8156 9.69081C13.1351 9.37136 13.1351 8.8922 12.8156 8.57275C12.4962 8.25331 12.017 8.25331 11.6976 8.57275L9.06217 11.2082L8.02398 10.17C7.74447 9.85053 7.22537 9.85053 6.90592 10.17C6.58648 10.4894 6.58648 10.9686 6.90592 11.288L8.50315 12.8853Z" fill="#B0B7C3"/>
<path fill-rule="evenodd" clip-rule="evenodd" d="M9.06283 13.1252C8.86317 13.1252 8.66352 13.0453 8.5038 12.8856L6.90658 11.2884C6.58713 10.9689 6.58713 10.4897 6.90658 10.1703C7.22602 9.85086 7.74512 9.85086 8.02463 10.1703L9.06283 11.2085L11.6982 8.57308C12.0177 8.25363 12.4969 8.25363 12.8163 8.57308C13.1357 8.89252 13.1357 9.37169 12.8163 9.69114L9.62185 12.8856C9.46213 13.0453 9.26248 13.1252 9.06283 13.1252Z" fill="#B0B7C3"/>
</svg>
