<svg width="16" height="17" viewBox="0 0 16 17" fill="none" xmlns="http://www.w3.org/2000/svg">
<path fill-rule="evenodd" clip-rule="evenodd" d="M0.6 0.8C0.352787 0.470382 0.587977 0 1 0H15C15.412 0 15.6472 0.470382 15.4 0.8L10 8V16.191C10 16.5627 9.60884 16.8044 9.27639 16.6382L6 15V8L0.6 0.8Z" fill="#377DFF"/>
</svg>
