<svg width="21" height="15" viewBox="0 0 21 15" fill="none" xmlns="http://www.w3.org/2000/svg">
<rect x="0.25" y="0.25" width="20.5" height="14.5" rx="1.75" fill="white" stroke="#F5F5F5" stroke-width="0.5"/>
<mask id="mask0" mask-type="alpha" maskUnits="userSpaceOnUse" x="0" y="0" width="21" height="15">
<rect x="0.25" y="0.25" width="20.5" height="14.5" rx="1.75" fill="white" stroke="white" stroke-width="0.5"/>
</mask>
<g mask="url(#mask0)">
<path fill-rule="evenodd" clip-rule="evenodd" d="M10.5001 11C12.4331 11 14.0001 9.433 14.0001 7.5C14.0001 5.567 12.4331 4 10.5001 4C8.56709 4 7.00008 5.567 7.00008 7.5C7.00008 9.433 8.56709 11 10.5001 11Z" fill="#E01B41"/>
<mask id="mask1" mask-type="alpha" maskUnits="userSpaceOnUse" x="7" y="4" width="7" height="7">
<path fill-rule="evenodd" clip-rule="evenodd" d="M10.5001 11C12.4331 11 14.0001 9.433 14.0001 7.5C14.0001 5.567 12.4331 4 10.5001 4C8.56709 4 7.00008 5.567 7.00008 7.5C7.00008 9.433 8.56709 11 10.5001 11Z" fill="white"/>
</mask>
<g mask="url(#mask1)">
<path fill-rule="evenodd" clip-rule="evenodd" d="M7.00013 8C8.00013 8.9375 9.50013 9.5 10.5001 8C11.5001 6.5 13.5001 6.5 14.0001 8C14.5001 9.5 14.0001 11 14.0001 11H7.00013C7.00013 11 6.00013 7.0625 7.00013 8Z" fill="#0E4B9C"/>
</g>
<path opacity="0.75" fill-rule="evenodd" clip-rule="evenodd" d="M4.58812 2.73948C4.68017 2.58005 4.88403 2.52542 5.04346 2.61747L5.33214 2.78413C5.49157 2.87618 5.54619 3.08005 5.45415 3.23948L4.28748 5.2602C4.19543 5.41963 3.99157 5.47426 3.83214 5.38221L3.54346 5.21554C3.38403 5.1235 3.32941 4.91963 3.42145 4.7602L4.58812 2.73948ZM15.6678 2.78414C15.5083 2.87619 15.4537 3.08006 15.5458 3.23949L16.7124 5.26021C16.8045 5.41964 17.0083 5.47427 17.1678 5.38222L17.4564 5.21555C17.6159 5.12351 17.6705 4.91964 17.5784 4.76021L16.4118 2.73949C16.3197 2.58006 16.1159 2.52543 15.9564 2.61748L15.6678 2.78414ZM14.3688 3.53414C14.2094 3.62619 14.1548 3.83006 14.2468 3.98949L15.4135 6.01021C15.5055 6.16964 15.7094 6.22427 15.8688 6.13222L16.1575 5.96555C16.3169 5.87351 16.3716 5.66964 16.2795 5.51021L15.1128 3.48949C15.0208 3.33006 14.8169 3.27543 14.6575 3.36748L14.3688 3.53414ZM3.42145 10.2395C3.32941 10.08 3.38403 9.87618 3.54346 9.78413L3.83214 9.61747C3.99157 9.52542 4.19543 9.58004 4.28748 9.73948L5.45415 11.7602C5.54619 11.9196 5.49157 12.1235 5.33214 12.2155L5.04346 12.3822C4.88403 12.4743 4.68017 12.4196 4.58812 12.2602L3.42145 10.2395ZM4.84241 9.03413C4.68298 9.12618 4.62835 9.33005 4.7204 9.48948L5.88707 11.5102C5.97911 11.6696 6.18298 11.7243 6.34241 11.6322L6.63108 11.4655C6.79051 11.3735 6.84514 11.1696 6.75309 11.0102L5.58642 8.98948C5.49438 8.83005 5.29051 8.77542 5.13108 8.86747L4.84241 9.03413ZM15.4135 8.98947C15.5055 8.83004 15.7094 8.77541 15.8688 8.86746L16.1575 9.03413C16.3169 9.12617 16.3716 9.33004 16.2795 9.48947L15.1128 11.5102C15.0208 11.6696 14.8169 11.7242 14.6575 11.6322L14.3688 11.4655C14.2094 11.3735 14.1548 11.1696 14.2468 11.0102L15.4135 8.98947ZM17.1678 9.61746C17.0083 9.52541 16.8045 9.58004 16.7124 9.73947L15.5458 11.7602C15.4537 11.9196 15.5083 12.1235 15.6678 12.2155L15.9564 12.3822C16.1159 12.4742 16.3197 12.4196 16.4118 12.2602L17.5784 10.2395C17.6705 10.08 17.6159 9.87617 17.4564 9.78413L17.1678 9.61746ZM6.34241 3.36747C6.18298 3.27542 5.97911 3.33005 5.88707 3.48948L4.7204 5.5102C4.62835 5.66963 4.68298 5.8735 4.84241 5.96554L5.13108 6.13221C5.29051 6.22426 5.49438 6.16963 5.58642 6.0102L6.75309 3.98948C6.84514 3.83005 6.79051 3.62618 6.63108 3.53413L6.34241 3.36747Z" fill="#262626"/>
</g>
</svg>
