<svg width="20" height="20" viewBox="0 0 20 20" fill="none" xmlns="http://www.w3.org/2000/svg">
<path fill-rule="evenodd" clip-rule="evenodd" d="M5.83301 6.66667C5.83301 4.36548 7.69849 2.5 9.99967 2.5C12.3009 2.5 14.1663 4.36548 14.1663 6.66667V8.33333H14.6663C15.7709 8.33333 16.6663 9.22876 16.6663 10.3333V14.6667C16.6663 15.7712 15.7709 16.6667 14.6663 16.6667H5.33301C4.22844 16.6667 3.33301 15.7712 3.33301 14.6667V10.3333C3.33301 9.22876 4.22844 8.33333 5.33301 8.33333H5.83301V6.66667ZM9.99967 4.16667C8.61896 4.16667 7.49967 5.28596 7.49967 6.66667V8.33333H12.4997V6.66667C12.4997 5.28595 11.3804 4.16667 9.99967 4.16667Z" fill="#FF5630"/>
</svg>
