<svg width="20" height="20" viewBox="0 0 20 20" fill="none" xmlns="http://www.w3.org/2000/svg">
<path opacity="0.3" fill-rule="evenodd" clip-rule="evenodd" d="M4.16669 2.66667C4.16669 2.11438 4.6144 1.66667 5.16669 1.66667H14.8334C15.3856 1.66667 15.8334 2.11438 15.8334 2.66667V9.83333C15.8334 10.3856 15.3856 10.8333 14.8334 10.8333H5.16669C4.6144 10.8333 4.16669 10.3856 4.16669 9.83333V2.66667ZM5.83335 4.58333C5.83335 4.35322 6.0199 4.16667 6.25002 4.16667H11.25C11.4801 4.16667 11.6667 4.35322 11.6667 4.58333C11.6667 4.81345 11.4801 5 11.25 5H6.25002C6.0199 5 5.83335 4.81345 5.83335 4.58333ZM6.25002 5.83333C6.0199 5.83333 5.83335 6.01988 5.83335 6.25C5.83335 6.48012 6.0199 6.66667 6.25002 6.66667H8.75002C8.98014 6.66667 9.16669 6.48012 9.16669 6.25C9.16669 6.01988 8.98014 5.83333 8.75002 5.83333H6.25002Z" fill="#B0B7C3"/>
<path fill-rule="evenodd" clip-rule="evenodd" d="M2.5 5.97791C2.5 5.57003 2.96208 5.33376 3.29275 5.57258L10 10.4167L16.7073 5.57258C17.0379 5.33376 17.5 5.57003 17.5 5.97792V13.8334C17.5 14.9379 16.6046 15.8334 15.5 15.8334H4.5C3.39543 15.8334 2.5 14.9379 2.5 13.8334V5.97791Z" fill="#B0B7C3"/>
</svg>
