<svg width="24" height="24" viewBox="0 0 24 24" fill="none" xmlns="http://www.w3.org/2000/svg">
<path fill-rule="evenodd" clip-rule="evenodd" d="M11.5746 21.2C6.17461 21.2 2.84961 17.4 2.84961 12.575C2.84961 6.87499 7.37461 3.04999 12.5246 3.04999C17.4496 3.04999 21.1246 6.07499 21.1246 10.85C21.1246 15.2 18.8246 16.925 16.5246 16.925C15.3996 16.925 14.4746 16.4 14.0746 15.65C13.2996 16.4 12.1246 16.875 10.9996 16.875C8.24961 16.875 6.84961 14.925 6.84961 12.575C6.84961 9.54999 9.04961 7.09999 12.2746 7.09999C13.1996 7.09999 13.9496 7.34999 14.5246 7.77499L14.6246 7.34999H16.9996L15.8246 12.85C15.5996 13.95 15.8496 14.825 16.9246 14.825C18.2496 14.825 19.0246 13.725 19.0246 10.8C19.0246 6.89999 15.9496 5.07499 12.4996 5.07499C8.62461 5.07499 5.04961 7.74999 5.04961 12.575C5.04961 16.525 7.57461 19.1 11.5746 19.1C13.0746 19.1 14.6246 18.775 15.9746 18.075L16.7996 20.1C15.2496 20.8 13.1996 21.2 11.5746 21.2ZM11.3996 14.525C12.0496 14.525 12.6996 14.35 13.2246 13.825L14.0246 10.125C13.5746 9.64999 12.9246 9.42499 12.2996 9.42499C10.6496 9.42499 9.44961 10.7 9.44961 12.375C9.44961 13.675 10.0746 14.525 11.3996 14.525Z" fill="#8A94A6"/>
</svg>
