<svg width="24" height="24" viewBox="0 0 24 24" fill="none" xmlns="http://www.w3.org/2000/svg">
<path fill-rule="evenodd" clip-rule="evenodd" d="M18.25 13.25H20.125C21.1605 13.25 22 14.0895 22 15.125C22 16.1605 21.1605 17 20.125 17H3.875C2.83947 17 2 16.1605 2 15.125C2 14.0895 2.83947 13.25 3.875 13.25H5.75L6.44784 6.96942C6.76219 4.14032 9.15349 2 12 2C14.8465 2 17.2378 4.14032 17.5522 6.96942L18.25 13.25Z" fill="#B0B7C3"/>
<path opacity="0.3" d="M14.5 20.75C14.5 19.3693 13.3807 18.25 12 18.25C10.6193 18.25 9.5 19.3693 9.5 20.75C9.5 22.1307 10.6193 23.25 12 23.25C13.3807 23.25 14.5 22.1307 14.5 20.75Z" fill="#B0B7C3"/>
</svg>
