<svg width="20" height="20" viewBox="0 0 20 20" fill="none" xmlns="http://www.w3.org/2000/svg">
<path opacity="0.3" fill-rule="evenodd" clip-rule="evenodd" d="M4.04762 0.833332H9.68879C10.0435 0.833332 10.3867 0.959016 10.6575 1.18807L14.4687 4.41172C14.8057 4.69672 15 5.11565 15 5.55698V15.9028C15 17.3949 14.983 17.5 13.4524 17.5H4.04762C2.51704 17.5 2.5 17.3949 2.5 15.9028V2.43055C2.5 0.938436 2.51704 0.833332 4.04762 0.833332ZM5.83333 10.8333C5.83333 10.3731 6.20643 10 6.66667 10H12.5C12.9602 10 13.3333 10.3731 13.3333 10.8333C13.3333 11.2936 12.9602 11.6667 12.5 11.6667H6.66667C6.20643 11.6667 5.83333 11.2936 5.83333 10.8333ZM6.66667 13.3333C6.20643 13.3333 5.83333 13.7064 5.83333 14.1667C5.83333 14.6269 6.20643 15 6.66667 15H9.16667C9.6269 15 10 14.6269 10 14.1667C10 13.7064 9.6269 13.3333 9.16667 13.3333H6.66667Z" fill="#B0B7C3"/>
<path fill-rule="evenodd" clip-rule="evenodd" d="M5.71431 2.5H12.1888C12.5435 2.5 12.8867 2.62568 13.1575 2.85474L16.9687 6.07839C17.3057 6.36339 17.5 6.78232 17.5 7.22365V17.5694C17.5 19.0616 17.483 19.1667 15.9524 19.1667H5.71431C4.18373 19.1667 4.16669 19.0616 4.16669 17.5694V4.09722C4.16669 2.6051 4.18373 2.5 5.71431 2.5ZM5.83335 10.8333C5.83335 10.3731 6.20645 10 6.66669 10H12.5C12.9603 10 13.3334 10.3731 13.3334 10.8333C13.3334 11.2936 12.9603 11.6667 12.5 11.6667H6.66669C6.20645 11.6667 5.83335 11.2936 5.83335 10.8333ZM6.66669 13.3333C6.20645 13.3333 5.83335 13.7064 5.83335 14.1667C5.83335 14.6269 6.20645 15 6.66669 15H9.16669C9.62692 15 10 14.6269 10 14.1667C10 13.7064 9.62692 13.3333 9.16669 13.3333H6.66669Z" fill="#B0B7C3"/>
</svg>
