<svg width="20" height="20" viewBox="0 0 20 20" fill="none" xmlns="http://www.w3.org/2000/svg">
<path fill-rule="evenodd" clip-rule="evenodd" d="M5.83301 8.33333V6.66667C5.83301 4.36548 7.69849 2.5 9.99967 2.5C11.1897 2.5 12.2633 2.99893 13.0225 3.79902L12.0575 5.24661C11.6064 4.59414 10.8529 4.16667 9.99967 4.16667C8.61896 4.16667 7.49967 5.28595 7.49967 6.66667V8.33333H11.6663H12.4997H14.1663H14.9997C15.9201 8.33333 16.6663 9.07952 16.6663 10V15C16.6663 15.9205 15.9201 16.6667 14.9997 16.6667H4.99967C4.0792 16.6667 3.33301 15.9205 3.33301 15V10C3.33301 9.07952 4.0792 8.33333 4.99967 8.33333H5.83301Z" fill="#FF5630"/>
</svg>
